{
  "usingComponents": {
    "order-item-card": "/components/order-item-card/order-item-card",
    "card": "mini-antui/es/card/index",
    "bottom-tab-bar": "/components/bottom-tab-bar/bottom-tab-bar"
  }
}
