{
  "usingComponents": {
    "bottom-tab-bar": "/components/bottom-tab-bar/bottom-tab-bar",
    "variation-picker": "/components/variation-picker/variation-picker",
    "input-quantity": "/components/input-quantity/input-quantity",
    "img": "/components/img/img"
  }
}
